%!PS-Adobe-3.0 EPSF-3.0
%%Title: transp_U_sin_x_bias.eps
%%Creator: matplotlib version 2.0.2, http://matplotlib.org/
%%CreationDate: Thu Aug 16 17:03:43 2018
%%Orientation: portrait
%%BoundingBox: -414 -180 1026 972
%%EndComments
%%BeginProlog
/mpldict 8 dict def
mpldict begin
/m { moveto } bind def
/l { lineto } bind def
/r { rlineto } bind def
/c { curveto } bind def
/cl { closepath } bind def
/box {
m
1 index 0 r
0 exch r
neg 0 r
cl
} bind def
/clipbox {
box
clip
newpath
} bind def
%!PS-Adobe-3.0 Resource-Font
%%Title: DejaVu Sans
%%Copyright: Copyright (c) 2003 by Bitstream, Inc. All Rights Reserved. Copyright (c) 2006 by Tavmjong Bah. All Rights Reserved. DejaVu changes are in public domain 
%%Creator: Converted from TrueType to type 3 by PPR
25 dict begin
/_d{bind def}bind def
/_m{moveto}_d
/_l{lineto}_d
/_cl{closepath eofill}_d
/_c{curveto}_d
/_sc{7 -1 roll{setcachedevice}{pop pop pop pop pop pop}ifelse}_d
/_e{exec}_d
/FontName /DejaVuSans def
/PaintType 0 def
/FontMatrix[.001 0 0 .001 0 0]def
/FontBBox[-1021 -463 1793 1232]def
/FontType 3 def
/Encoding [ /period /zero /one /two /four /five /seven /U /e /i /m /t /x /y /z /minus ] def
/FontInfo 10 dict dup begin
/FamilyName (DejaVu Sans) def
/FullName (DejaVu Sans) def
/Notice (Copyright (c) 2003 by Bitstream, Inc. All Rights Reserved. Copyright (c) 2006 by Tavmjong Bah. All Rights Reserved. DejaVu changes are in public domain ) def
/Weight (Book) def
/Version (Version 2.35) def
/ItalicAngle 0.0 def
/isFixedPitch false def
/UnderlinePosition -130 def
/UnderlineThickness 90 def
end readonly def
/CharStrings 16 dict dup begin
/period{318 0 107 0 210 124 _sc
107 124 _m
210 124 _l
210 0 _l
107 0 _l
107 124 _l
_cl}_d
/zero{636 0 66 -13 570 742 _sc
318 664 _m
267 664 229 639 203 589 _c
177 539 165 464 165 364 _c
165 264 177 189 203 139 _c
229 89 267 64 318 64 _c
369 64 407 89 433 139 _c
458 189 471 264 471 364 _c
471 464 458 539 433 589 _c
407 639 369 664 318 664 _c
318 742 _m
399 742 461 709 505 645 _c
548 580 570 486 570 364 _c
570 241 548 147 505 83 _c
461 19 399 -13 318 -13 _c
236 -13 173 19 130 83 _c
87 147 66 241 66 364 _c
66 486 87 580 130 645 _c
173 709 236 742 318 742 _c
_cl}_d
/one{636 0 110 0 544 729 _sc
124 83 _m
285 83 _l
285 639 _l
110 604 _l
110 694 _l
284 729 _l
383 729 _l
383 83 _l
544 83 _l
544 0 _l
124 0 _l
124 83 _l
_cl}_d
/two{{636 0 73 0 536 742 _sc
192 83 _m
536 83 _l
536 0 _l
73 0 _l
73 83 _l
110 121 161 173 226 239 _c
290 304 331 346 348 365 _c
380 400 402 430 414 455 _c
426 479 433 504 433 528 _c
433 566 419 598 392 622 _c
365 646 330 659 286 659 _c
255 659 222 653 188 643 _c
154 632 117 616 78 594 _c
78 694 _l
118 710 155 722 189 730 _c
223 738 255 742 284 742 _c
}_e{359 742 419 723 464 685 _c
509 647 532 597 532 534 _c
532 504 526 475 515 449 _c
504 422 484 390 454 354 _c
446 344 420 317 376 272 _c
332 227 271 164 192 83 _c
_cl}_e}_d
/four{636 0 49 0 580 729 _sc
378 643 _m
129 254 _l
378 254 _l
378 643 _l
352 729 _m
476 729 _l
476 254 _l
580 254 _l
580 172 _l
476 172 _l
476 0 _l
378 0 _l
378 172 _l
49 172 _l
49 267 _l
352 729 _l
_cl}_d
/five{{636 0 77 -13 549 729 _sc
108 729 _m
495 729 _l
495 646 _l
198 646 _l
198 467 _l
212 472 227 476 241 478 _c
255 480 270 482 284 482 _c
365 482 429 459 477 415 _c
525 370 549 310 549 234 _c
549 155 524 94 475 51 _c
426 8 357 -13 269 -13 _c
238 -13 207 -10 175 -6 _c
143 -1 111 6 77 17 _c
77 116 _l
106 100 136 88 168 80 _c
199 72 232 69 267 69 _c
}_e{323 69 368 83 401 113 _c
433 143 450 183 450 234 _c
450 284 433 324 401 354 _c
368 384 323 399 267 399 _c
241 399 214 396 188 390 _c
162 384 135 375 108 363 _c
108 729 _l
_cl}_e}_d
/seven{636 0 82 0 551 729 _sc
82 729 _m
551 729 _l
551 687 _l
286 0 _l
183 0 _l
432 646 _l
82 646 _l
82 729 _l
_cl}_d
/U{732 0 87 -13 645 729 _sc
87 729 _m
186 729 _l
186 286 _l
186 208 200 151 228 117 _c
256 83 302 66 366 66 _c
429 66 475 83 503 117 _c
531 151 546 208 546 286 _c
546 729 _l
645 729 _l
645 274 _l
645 178 621 107 574 59 _c
527 11 458 -13 366 -13 _c
274 -13 204 11 157 59 _c
110 107 87 178 87 274 _c
87 729 _l
_cl}_d
/e{{615 0 55 -13 562 560 _sc
562 296 _m
562 252 _l
149 252 _l
153 190 171 142 205 110 _c
238 78 284 62 344 62 _c
378 62 412 66 444 74 _c
476 82 509 95 541 113 _c
541 28 _l
509 14 476 3 442 -3 _c
408 -9 373 -13 339 -13 _c
251 -13 182 12 131 62 _c
80 112 55 181 55 268 _c
55 357 79 428 127 481 _c
175 533 241 560 323 560 _c
397 560 455 536 498 489 _c
}_e{540 441 562 377 562 296 _c
472 322 _m
471 371 457 410 431 440 _c
404 469 368 484 324 484 _c
274 484 234 469 204 441 _c
174 413 156 373 152 322 _c
472 322 _l
_cl}_e}_d
/i{278 0 94 0 184 760 _sc
94 547 _m
184 547 _l
184 0 _l
94 0 _l
94 547 _l
94 760 _m
184 760 _l
184 646 _l
94 646 _l
94 760 _l
_cl}_d
/m{{974 0 91 0 889 560 _sc
520 442 _m
542 482 569 511 600 531 _c
631 550 668 560 711 560 _c
767 560 811 540 842 500 _c
873 460 889 403 889 330 _c
889 0 _l
799 0 _l
799 327 _l
799 379 789 418 771 444 _c
752 469 724 482 686 482 _c
639 482 602 466 575 435 _c
548 404 535 362 535 309 _c
535 0 _l
445 0 _l
445 327 _l
445 379 435 418 417 444 _c
398 469 369 482 331 482 _c
}_e{285 482 248 466 221 435 _c
194 404 181 362 181 309 _c
181 0 _l
91 0 _l
91 547 _l
181 547 _l
181 462 _l
201 495 226 520 255 536 _c
283 552 317 560 357 560 _c
397 560 430 550 458 530 _c
486 510 506 480 520 442 _c
_cl}_e}_d
/t{392 0 27 0 368 702 _sc
183 702 _m
183 547 _l
368 547 _l
368 477 _l
183 477 _l
183 180 _l
183 135 189 106 201 94 _c
213 81 238 75 276 75 _c
368 75 _l
368 0 _l
276 0 _l
206 0 158 13 132 39 _c
106 65 93 112 93 180 _c
93 477 _l
27 477 _l
27 547 _l
93 547 _l
93 702 _l
183 702 _l
_cl}_d
/x{592 0 29 0 559 547 _sc
549 547 _m
351 281 _l
559 0 _l
453 0 _l
294 215 _l
135 0 _l
29 0 _l
241 286 _l
47 547 _l
153 547 _l
298 352 _l
443 547 _l
549 547 _l
_cl}_d
/y{592 0 30 -207 562 547 _sc
322 -50 _m
296 -114 271 -157 247 -177 _c
223 -197 191 -207 151 -207 _c
79 -207 _l
79 -132 _l
132 -132 _l
156 -132 175 -126 189 -114 _c
203 -102 218 -75 235 -31 _c
251 9 _l
30 547 _l
125 547 _l
296 119 _l
467 547 _l
562 547 _l
322 -50 _l
_cl}_d
/z{525 0 43 0 482 547 _sc
55 547 _m
482 547 _l
482 465 _l
144 72 _l
482 72 _l
482 0 _l
43 0 _l
43 82 _l
381 475 _l
55 475 _l
55 547 _l
_cl}_d
/minus{838 0 106 272 732 355 _sc
106 355 _m
732 355 _l
732 272 _l
106 272 _l
106 355 _l
_cl}_d
end readonly def

/BuildGlyph
 {exch begin
 CharStrings exch
 2 copy known not{pop /.notdef}if
 true 3 1 roll get exec
 end}_d

/BuildChar {
 1 index /Encoding get exch get
 1 index /BuildGlyph get exec
}_d

FontName currentdict end definefont pop
end
%%EndProlog
mpldict begin
-414 -180 translate
1440 1152 0 0 clipbox
gsave
0 0 m
1440 0 l
1440 1152 l
0 1152 l
cl
1.000 setgray
fill
grestore
gsave
180 752.865882 m
1296 752.865882 l
1296 1013.76 l
180 1013.76 l
cl
1.000 setgray
fill
grestore
0.800 setlinewidth
1 setlinejoin
0 setlinecap
[] 0 setdash
0.000 setgray
gsave
/o {
gsave
newpath
translate
0.8 setlinewidth
1 setlinejoin
0 setlinecap
0 0 m
0 -3.5 l

gsave
0.000 setgray
fill
grestore
stroke
grestore
} bind def
230.727 752.866 o
grestore
/DejaVuSans findfont
30.000 scalefont
setfont
gsave
221.180398 723.069007 translate
0.000000 rotate
0.000000 0.000000 m /zero glyphshow
grestore
gsave
/o {
gsave
newpath
translate
0.8 setlinewidth
1 setlinejoin
0 setlinecap
0 0 m
0 -3.5 l

gsave
0.000 setgray
fill
grestore
stroke
grestore
} bind def
358.183 752.866 o
grestore
gsave
339.088982 723.069007 translate
0.000000 rotate
0.000000 0.000000 m /two glyphshow
19.086914 0.000000 m /five glyphshow
grestore
gsave
/o {
gsave
newpath
translate
0.8 setlinewidth
1 setlinejoin
0 setlinecap
0 0 m
0 -3.5 l

gsave
0.000 setgray
fill
grestore
stroke
grestore
} bind def
485.638 752.866 o
grestore
gsave
466.544441 723.069007 translate
0.000000 rotate
0.000000 0.000000 m /five glyphshow
19.086914 0.000000 m /zero glyphshow
grestore
gsave
/o {
gsave
newpath
translate
0.8 setlinewidth
1 setlinejoin
0 setlinecap
0 0 m
0 -3.5 l

gsave
0.000 setgray
fill
grestore
stroke
grestore
} bind def
613.094 752.866 o
grestore
gsave
593.999900 723.069007 translate
0.000000 rotate
0.000000 0.000000 m /seven glyphshow
19.086914 0.000000 m /five glyphshow
grestore
gsave
/o {
gsave
newpath
translate
0.8 setlinewidth
1 setlinejoin
0 setlinecap
0 0 m
0 -3.5 l

gsave
0.000 setgray
fill
grestore
stroke
grestore
} bind def
740.549 752.866 o
grestore
gsave
711.908484 723.069007 translate
0.000000 rotate
0.000000 0.000000 m /one glyphshow
19.086914 0.000000 m /zero glyphshow
38.173828 0.000000 m /zero glyphshow
grestore
gsave
/o {
gsave
newpath
translate
0.8 setlinewidth
1 setlinejoin
0 setlinecap
0 0 m
0 -3.5 l

gsave
0.000 setgray
fill
grestore
stroke
grestore
} bind def
868.005 752.866 o
grestore
gsave
839.363943 723.069007 translate
0.000000 rotate
0.000000 0.000000 m /one glyphshow
19.086914 0.000000 m /two glyphshow
38.173828 0.000000 m /five glyphshow
grestore
gsave
/o {
gsave
newpath
translate
0.8 setlinewidth
1 setlinejoin
0 setlinecap
0 0 m
0 -3.5 l

gsave
0.000 setgray
fill
grestore
stroke
grestore
} bind def
995.46 752.866 o
grestore
gsave
966.819402 723.069007 translate
0.000000 rotate
0.000000 0.000000 m /one glyphshow
19.086914 0.000000 m /five glyphshow
38.173828 0.000000 m /zero glyphshow
grestore
gsave
/o {
gsave
newpath
translate
0.8 setlinewidth
1 setlinejoin
0 setlinecap
0 0 m
0 -3.5 l

gsave
0.000 setgray
fill
grestore
stroke
grestore
} bind def
1122.92 752.866 o
grestore
gsave
1094.274862 723.069007 translate
0.000000 rotate
0.000000 0.000000 m /one glyphshow
19.086914 0.000000 m /seven glyphshow
38.173828 0.000000 m /five glyphshow
grestore
gsave
/o {
gsave
newpath
translate
0.8 setlinewidth
1 setlinejoin
0 setlinecap
0 0 m
0 -3.5 l

gsave
0.000 setgray
fill
grestore
stroke
grestore
} bind def
1250.37 752.866 o
grestore
gsave
1221.730321 723.069007 translate
0.000000 rotate
0.000000 0.000000 m /two glyphshow
19.086914 0.000000 m /zero glyphshow
38.173828 0.000000 m /zero glyphshow
grestore
gsave
/o {
gsave
newpath
translate
0.8 setlinewidth
1 setlinejoin
0 setlinecap
0 0 m
-3.5 0 l

gsave
0.000 setgray
fill
grestore
stroke
grestore
} bind def
180 764.725 o
grestore
gsave
153.906250 753.326268 translate
0.000000 rotate
0.000000 0.000000 m /zero glyphshow
grestore
gsave
/o {
gsave
newpath
translate
0.8 setlinewidth
1 setlinejoin
0 setlinecap
0 0 m
-3.5 0 l

gsave
0.000 setgray
fill
grestore
stroke
grestore
} bind def
180 859.595 o
grestore
gsave
153.906250 848.196857 translate
0.000000 rotate
0.000000 0.000000 m /two glyphshow
grestore
gsave
/o {
gsave
newpath
translate
0.8 setlinewidth
1 setlinejoin
0 setlinecap
0 0 m
-3.5 0 l

gsave
0.000 setgray
fill
grestore
stroke
grestore
} bind def
180 954.466 o
grestore
gsave
153.906250 943.067445 translate
0.000000 rotate
0.000000 0.000000 m /four glyphshow
grestore
gsave
143.671875 863.461379 translate
90.000000 rotate
0.000000 0.000000 m /U glyphshow
21.958008 0.000000 m /x glyphshow
grestore
4.000 setlinewidth
2 setlinecap
0.000 0.000 1.000 setrgbcolor
gsave
1116 260.9 180 752.9 clipbox
230.727273 932.433797 m
235.825491 887.213824 l
240.923709 840.176835 l
246.021928 800.167376 l
251.120146 773.839553 l
256.218365 764.724706 l
261.316583 773.839553 l
266.414801 800.167376 l
271.51302 840.176835 l
276.611238 887.213824 l
281.709456 932.433797 l
286.807675 967.823436 l
291.905893 989.579446 l
297.004111 999.238022 l
302.10233 1001.725967 l
307.200548 1001.901176 l
312.298767 1001.725967 l
317.396985 999.238022 l
322.495203 989.579446 l
327.593422 967.823436 l
332.69164 932.433797 l
337.789858 887.213824 l
342.888077 840.176835 l
347.986295 800.167376 l
353.084513 773.839553 l
358.182732 764.724706 l
363.28095 773.839553 l
368.379169 800.167376 l
373.477387 840.176835 l
378.575605 887.213824 l
383.673824 932.433797 l
388.772042 967.823436 l
393.87026 989.579446 l
398.968479 999.238022 l
404.066697 1001.725967 l
409.164915 1001.901176 l
414.263134 1001.725967 l
419.361352 999.238022 l
424.459571 989.579446 l
429.557789 967.823436 l
434.656007 932.433797 l
439.754226 887.213824 l
444.852444 840.176835 l
449.950662 800.167376 l
455.048881 773.839553 l
460.147099 764.724706 l
465.245317 773.839553 l
470.343536 800.167376 l
475.441754 840.176835 l
480.539973 887.213824 l
485.638191 932.433797 l
490.736409 967.823436 l
495.834628 989.579446 l
500.932846 999.238022 l
506.031064 1001.725967 l
511.129283 1001.901176 l
516.227501 1001.725967 l
521.32572 999.238022 l
526.423938 989.579446 l
531.522156 967.823436 l
536.620375 932.433797 l
541.718593 887.213824 l
546.816811 840.176835 l
551.91503 800.167376 l
557.013248 773.839553 l
562.111466 764.724706 l
567.209685 773.839553 l
572.307903 800.167376 l
577.406122 840.176835 l
582.50434 887.213824 l
587.602558 932.433797 l
592.700777 967.823436 l
597.798995 989.579446 l
602.897213 999.238022 l
607.995432 1001.725967 l
613.09365 1001.901176 l
618.191868 1001.725967 l
623.290087 999.238022 l
628.388305 989.579446 l
633.486524 967.823436 l
638.584742 932.433797 l
643.68296 887.213824 l
648.781179 840.176835 l
653.879397 800.167376 l
658.977615 773.839553 l
664.075834 764.724706 l
669.174052 773.839553 l
674.27227 800.167376 l
679.370489 840.176835 l
684.468707 887.213824 l
689.566926 932.433797 l
694.665144 967.823436 l
699.763362 989.579446 l
704.861581 999.238022 l
709.959799 1001.725967 l
715.058017 1001.901176 l
720.156236 1001.725967 l
725.254454 999.238022 l
730.352672 989.579446 l
735.450891 967.823436 l
740.549109 932.433797 l
745.647328 887.213824 l
750.745546 840.176835 l
755.843764 800.167376 l
760.941983 773.839553 l
766.040201 764.724706 l
771.138419 773.839553 l
776.236638 800.167376 l
781.334856 840.176835 l
786.433074 887.213824 l
791.531293 932.433797 l
796.629511 967.823436 l
801.72773 989.579446 l
806.825948 999.238022 l
811.924166 1001.725967 l
817.022385 1001.901176 l
822.120603 1001.725967 l
827.218821 999.238022 l
832.31704 989.579446 l
837.415258 967.823436 l
842.513476 932.433797 l
847.611695 887.213824 l
852.709913 840.176835 l
857.808132 800.167376 l
862.90635 773.839553 l
868.004568 764.724706 l
873.102787 773.839553 l
878.201005 800.167376 l
883.299223 840.176835 l
888.397442 887.213824 l
893.49566 932.433797 l
898.593878 967.823436 l
903.692097 989.579446 l
908.790315 999.238022 l
913.888534 1001.725967 l
918.986752 1001.901176 l
924.08497 1001.725967 l
929.183189 999.238022 l
934.281407 989.579446 l
939.379625 967.823436 l
944.477844 932.433797 l
949.576062 887.213824 l
954.67428 840.176835 l
959.772499 800.167376 l
964.870717 773.839553 l
969.968936 764.724706 l
975.067154 773.839553 l
980.165372 800.167376 l
985.263591 840.176835 l
990.361809 887.213824 l
995.460027 932.433797 l
1000.558246 967.823436 l
1005.656464 989.579446 l
1010.754683 999.238022 l
1015.852901 1001.725967 l
1020.951119 1001.901176 l
1026.049338 1001.725967 l
1031.147556 999.238022 l
1036.245774 989.579446 l
1041.343993 967.823436 l
1046.442211 932.433797 l
1051.540429 887.213824 l
1056.638648 840.176835 l
1061.736866 800.167376 l
1066.835085 773.839553 l
1071.933303 764.724706 l
1077.031521 773.839553 l
1082.12974 800.167376 l
1087.227958 840.176835 l
1092.326176 887.213824 l
1097.424395 932.433797 l
1102.522613 967.823436 l
1107.620831 989.579446 l
1112.71905 999.238022 l
1117.817268 1001.725967 l
1122.915487 1001.901176 l
1128.013705 1001.725967 l
1133.111923 999.238022 l
1138.210142 989.579446 l
1143.30836 967.823436 l
1148.406578 932.433797 l
1153.504797 887.213824 l
1158.603015 840.176835 l
1163.701233 800.167376 l
1168.799452 773.839553 l
1173.89767 764.724706 l
1178.995889 773.839553 l
1184.094107 800.167376 l
1189.192325 840.176835 l
1194.290544 887.213824 l
1199.388762 932.433797 l
1204.48698 967.823436 l
1209.585199 989.579446 l
1214.683417 999.238022 l
1219.781635 1001.725967 l
1224.879854 1001.901176 l
1229.978072 1001.725967 l
1235.076291 999.238022 l
1240.174509 989.579446 l
1245.272727 967.823436 l
1245.272727 967.823436 l
stroke
grestore
0.800 setlinewidth
0 setlinejoin
[] 0 setdash
0.000 setgray
gsave
180 752.865882 m
180 1013.76 l
stroke
grestore
gsave
1296 752.865882 m
1296 1013.76 l
stroke
grestore
gsave
180 752.865882 m
1296 752.865882 l
stroke
grestore
gsave
180 1013.76 m
1296 1013.76 l
stroke
grestore
gsave
180 439.792941 m
1296 439.792941 l
1296 700.687059 l
180 700.687059 l
cl
1.000 setgray
fill
grestore
1 setlinejoin
0 setlinecap
[] 0 setdash
gsave
/o {
gsave
newpath
translate
0.8 setlinewidth
1 setlinejoin
0 setlinecap
0 0 m
0 -3.5 l

gsave
0.000 setgray
fill
grestore
stroke
grestore
} bind def
230.727 439.793 o
grestore
gsave
221.180398 409.996066 translate
0.000000 rotate
0.000000 0.000000 m /zero glyphshow
grestore
gsave
/o {
gsave
newpath
translate
0.8 setlinewidth
1 setlinejoin
0 setlinecap
0 0 m
0 -3.5 l

gsave
0.000 setgray
fill
grestore
stroke
grestore
} bind def
358.183 439.793 o
grestore
gsave
339.088982 409.996066 translate
0.000000 rotate
0.000000 0.000000 m /two glyphshow
19.086914 0.000000 m /five glyphshow
grestore
gsave
/o {
gsave
newpath
translate
0.8 setlinewidth
1 setlinejoin
0 setlinecap
0 0 m
0 -3.5 l

gsave
0.000 setgray
fill
grestore
stroke
grestore
} bind def
485.638 439.793 o
grestore
gsave
466.544441 409.996066 translate
0.000000 rotate
0.000000 0.000000 m /five glyphshow
19.086914 0.000000 m /zero glyphshow
grestore
gsave
/o {
gsave
newpath
translate
0.8 setlinewidth
1 setlinejoin
0 setlinecap
0 0 m
0 -3.5 l

gsave
0.000 setgray
fill
grestore
stroke
grestore
} bind def
613.094 439.793 o
grestore
gsave
593.999900 409.996066 translate
0.000000 rotate
0.000000 0.000000 m /seven glyphshow
19.086914 0.000000 m /five glyphshow
grestore
gsave
/o {
gsave
newpath
translate
0.8 setlinewidth
1 setlinejoin
0 setlinecap
0 0 m
0 -3.5 l

gsave
0.000 setgray
fill
grestore
stroke
grestore
} bind def
740.549 439.793 o
grestore
gsave
711.908484 409.996066 translate
0.000000 rotate
0.000000 0.000000 m /one glyphshow
19.086914 0.000000 m /zero glyphshow
38.173828 0.000000 m /zero glyphshow
grestore
gsave
/o {
gsave
newpath
translate
0.8 setlinewidth
1 setlinejoin
0 setlinecap
0 0 m
0 -3.5 l

gsave
0.000 setgray
fill
grestore
stroke
grestore
} bind def
868.005 439.793 o
grestore
gsave
839.363943 409.996066 translate
0.000000 rotate
0.000000 0.000000 m /one glyphshow
19.086914 0.000000 m /two glyphshow
38.173828 0.000000 m /five glyphshow
grestore
gsave
/o {
gsave
newpath
translate
0.8 setlinewidth
1 setlinejoin
0 setlinecap
0 0 m
0 -3.5 l

gsave
0.000 setgray
fill
grestore
stroke
grestore
} bind def
995.46 439.793 o
grestore
gsave
966.819402 409.996066 translate
0.000000 rotate
0.000000 0.000000 m /one glyphshow
19.086914 0.000000 m /five glyphshow
38.173828 0.000000 m /zero glyphshow
grestore
gsave
/o {
gsave
newpath
translate
0.8 setlinewidth
1 setlinejoin
0 setlinecap
0 0 m
0 -3.5 l

gsave
0.000 setgray
fill
grestore
stroke
grestore
} bind def
1122.92 439.793 o
grestore
gsave
1094.274862 409.996066 translate
0.000000 rotate
0.000000 0.000000 m /one glyphshow
19.086914 0.000000 m /seven glyphshow
38.173828 0.000000 m /five glyphshow
grestore
gsave
/o {
gsave
newpath
translate
0.8 setlinewidth
1 setlinejoin
0 setlinecap
0 0 m
0 -3.5 l

gsave
0.000 setgray
fill
grestore
stroke
grestore
} bind def
1250.37 439.793 o
grestore
gsave
1221.730321 409.996066 translate
0.000000 rotate
0.000000 0.000000 m /two glyphshow
19.086914 0.000000 m /zero glyphshow
38.173828 0.000000 m /zero glyphshow
grestore
gsave
/o {
gsave
newpath
translate
0.8 setlinewidth
1 setlinejoin
0 setlinecap
0 0 m
-3.5 0 l

gsave
0.000 setgray
fill
grestore
stroke
grestore
} bind def
180 451.652 o
grestore
gsave
153.906250 440.253327 translate
0.000000 rotate
0.000000 0.000000 m /zero glyphshow
grestore
gsave
/o {
gsave
newpath
translate
0.8 setlinewidth
1 setlinejoin
0 setlinecap
0 0 m
-3.5 0 l

gsave
0.000 setgray
fill
grestore
stroke
grestore
} bind def
180 546.522 o
grestore
gsave
153.906250 535.123915 translate
0.000000 rotate
0.000000 0.000000 m /two glyphshow
grestore
gsave
/o {
gsave
newpath
translate
0.8 setlinewidth
1 setlinejoin
0 setlinecap
0 0 m
-3.5 0 l

gsave
0.000 setgray
fill
grestore
stroke
grestore
} bind def
180 641.393 o
grestore
gsave
153.906250 629.994504 translate
0.000000 rotate
0.000000 0.000000 m /four glyphshow
grestore
gsave
143.671875 550.388438 translate
90.000000 rotate
0.000000 0.000000 m /U glyphshow
21.958008 0.000000 m /y glyphshow
grestore
4.000 setlinewidth
2 setlinecap
0.000 0.500 0.000 setrgbcolor
gsave
1116 260.9 180 439.8 clipbox
230.727273 619.360855 m
235.825491 654.750495 l
240.923709 676.506505 l
246.021928 686.165081 l
251.120146 688.653026 l
256.218365 688.828235 l
261.316583 688.653026 l
266.414801 686.165081 l
271.51302 676.506505 l
276.611238 654.750495 l
281.709456 619.360855 l
286.807675 574.140883 l
291.905893 527.103894 l
297.004111 487.094435 l
302.10233 460.766612 l
307.200548 451.651765 l
312.298767 460.766612 l
317.396985 487.094435 l
322.495203 527.103894 l
327.593422 574.140883 l
332.69164 619.360855 l
337.789858 654.750495 l
342.888077 676.506505 l
347.986295 686.165081 l
353.084513 688.653026 l
358.182732 688.828235 l
363.28095 688.653026 l
368.379169 686.165081 l
373.477387 676.506505 l
378.575605 654.750495 l
383.673824 619.360855 l
388.772042 574.140883 l
393.87026 527.103894 l
398.968479 487.094435 l
404.066697 460.766612 l
409.164915 451.651765 l
414.263134 460.766612 l
419.361352 487.094435 l
424.459571 527.103894 l
429.557789 574.140883 l
434.656007 619.360855 l
439.754226 654.750495 l
444.852444 676.506505 l
449.950662 686.165081 l
455.048881 688.653026 l
460.147099 688.828235 l
465.245317 688.653026 l
470.343536 686.165081 l
475.441754 676.506505 l
480.539973 654.750495 l
485.638191 619.360855 l
490.736409 574.140883 l
495.834628 527.103894 l
500.932846 487.094435 l
506.031064 460.766612 l
511.129283 451.651765 l
516.227501 460.766612 l
521.32572 487.094435 l
526.423938 527.103894 l
531.522156 574.140883 l
536.620375 619.360855 l
541.718593 654.750495 l
546.816811 676.506505 l
551.91503 686.165081 l
557.013248 688.653026 l
562.111466 688.828235 l
567.209685 688.653026 l
572.307903 686.165081 l
577.406122 676.506505 l
582.50434 654.750495 l
587.602558 619.360855 l
592.700777 574.140883 l
597.798995 527.103894 l
602.897213 487.094435 l
607.995432 460.766612 l
613.09365 451.651765 l
618.191868 460.766612 l
623.290087 487.094435 l
628.388305 527.103894 l
633.486524 574.140883 l
638.584742 619.360855 l
643.68296 654.750495 l
648.781179 676.506505 l
653.879397 686.165081 l
658.977615 688.653026 l
664.075834 688.828235 l
669.174052 688.653026 l
674.27227 686.165081 l
679.370489 676.506505 l
684.468707 654.750495 l
689.566926 619.360855 l
694.665144 574.140883 l
699.763362 527.103894 l
704.861581 487.094435 l
709.959799 460.766612 l
715.058017 451.651765 l
720.156236 460.766612 l
725.254454 487.094435 l
730.352672 527.103894 l
735.450891 574.140883 l
740.549109 619.360855 l
745.647328 654.750495 l
750.745546 676.506505 l
755.843764 686.165081 l
760.941983 688.653026 l
766.040201 688.828235 l
771.138419 688.653026 l
776.236638 686.165081 l
781.334856 676.506505 l
786.433074 654.750495 l
791.531293 619.360855 l
796.629511 574.140883 l
801.72773 527.103894 l
806.825948 487.094435 l
811.924166 460.766612 l
817.022385 451.651765 l
822.120603 460.766612 l
827.218821 487.094435 l
832.31704 527.103894 l
837.415258 574.140883 l
842.513476 619.360855 l
847.611695 654.750495 l
852.709913 676.506505 l
857.808132 686.165081 l
862.90635 688.653026 l
868.004568 688.828235 l
873.102787 688.653026 l
878.201005 686.165081 l
883.299223 676.506505 l
888.397442 654.750495 l
893.49566 619.360855 l
898.593878 574.140883 l
903.692097 527.103894 l
908.790315 487.094435 l
913.888534 460.766612 l
918.986752 451.651765 l
924.08497 460.766612 l
929.183189 487.094435 l
934.281407 527.103894 l
939.379625 574.140883 l
944.477844 619.360855 l
949.576062 654.750495 l
954.67428 676.506505 l
959.772499 686.165081 l
964.870717 688.653026 l
969.968936 688.828235 l
975.067154 688.653026 l
980.165372 686.165081 l
985.263591 676.506505 l
990.361809 654.750495 l
995.460027 619.360855 l
1000.558246 574.140883 l
1005.656464 527.103894 l
1010.754683 487.094435 l
1015.852901 460.766612 l
1020.951119 451.651765 l
1026.049338 460.766612 l
1031.147556 487.094435 l
1036.245774 527.103894 l
1041.343993 574.140883 l
1046.442211 619.360855 l
1051.540429 654.750495 l
1056.638648 676.506505 l
1061.736866 686.165081 l
1066.835085 688.653026 l
1071.933303 688.828235 l
1077.031521 688.653026 l
1082.12974 686.165081 l
1087.227958 676.506505 l
1092.326176 654.750495 l
1097.424395 619.360855 l
1102.522613 574.140883 l
1107.620831 527.103894 l
1112.71905 487.094435 l
1117.817268 460.766612 l
1122.915487 451.651765 l
1128.013705 460.766612 l
1133.111923 487.094435 l
1138.210142 527.103894 l
1143.30836 574.140883 l
1148.406578 619.360855 l
1153.504797 654.750495 l
1158.603015 676.506505 l
1163.701233 686.165081 l
1168.799452 688.653026 l
1173.89767 688.828235 l
1178.995889 688.653026 l
1184.094107 686.165081 l
1189.192325 676.506505 l
1194.290544 654.750495 l
1199.388762 619.360855 l
1204.48698 574.140883 l
1209.585199 527.103894 l
1214.683417 487.094435 l
1219.781635 460.766612 l
1224.879854 451.651765 l
1229.978072 460.766612 l
1235.076291 487.094435 l
1240.174509 527.103894 l
1245.272727 574.140883 l
1245.272727 574.140883 l
stroke
grestore
0.800 setlinewidth
0 setlinejoin
[] 0 setdash
0.000 setgray
gsave
180 439.792941 m
180 700.687059 l
stroke
grestore
gsave
1296 439.792941 m
1296 700.687059 l
stroke
grestore
gsave
180 439.792941 m
1296 439.792941 l
stroke
grestore
gsave
180 700.687059 m
1296 700.687059 l
stroke
grestore
gsave
180 126.72 m
1296 126.72 l
1296 387.614118 l
180 387.614118 l
cl
1.000 setgray
fill
grestore
1 setlinejoin
0 setlinecap
[] 0 setdash
gsave
/o {
gsave
newpath
translate
0.8 setlinewidth
1 setlinejoin
0 setlinecap
0 0 m
0 -3.5 l

gsave
0.000 setgray
fill
grestore
stroke
grestore
} bind def
230.727 126.72 o
grestore
gsave
221.180398 96.923125 translate
0.000000 rotate
0.000000 0.000000 m /zero glyphshow
grestore
gsave
/o {
gsave
newpath
translate
0.8 setlinewidth
1 setlinejoin
0 setlinecap
0 0 m
0 -3.5 l

gsave
0.000 setgray
fill
grestore
stroke
grestore
} bind def
358.183 126.72 o
grestore
gsave
339.088982 96.923125 translate
0.000000 rotate
0.000000 0.000000 m /two glyphshow
19.086914 0.000000 m /five glyphshow
grestore
gsave
/o {
gsave
newpath
translate
0.8 setlinewidth
1 setlinejoin
0 setlinecap
0 0 m
0 -3.5 l

gsave
0.000 setgray
fill
grestore
stroke
grestore
} bind def
485.638 126.72 o
grestore
gsave
466.544441 96.923125 translate
0.000000 rotate
0.000000 0.000000 m /five glyphshow
19.086914 0.000000 m /zero glyphshow
grestore
gsave
/o {
gsave
newpath
translate
0.8 setlinewidth
1 setlinejoin
0 setlinecap
0 0 m
0 -3.5 l

gsave
0.000 setgray
fill
grestore
stroke
grestore
} bind def
613.094 126.72 o
grestore
gsave
593.999900 96.923125 translate
0.000000 rotate
0.000000 0.000000 m /seven glyphshow
19.086914 0.000000 m /five glyphshow
grestore
gsave
/o {
gsave
newpath
translate
0.8 setlinewidth
1 setlinejoin
0 setlinecap
0 0 m
0 -3.5 l

gsave
0.000 setgray
fill
grestore
stroke
grestore
} bind def
740.549 126.72 o
grestore
gsave
711.908484 96.923125 translate
0.000000 rotate
0.000000 0.000000 m /one glyphshow
19.086914 0.000000 m /zero glyphshow
38.173828 0.000000 m /zero glyphshow
grestore
gsave
/o {
gsave
newpath
translate
0.8 setlinewidth
1 setlinejoin
0 setlinecap
0 0 m
0 -3.5 l

gsave
0.000 setgray
fill
grestore
stroke
grestore
} bind def
868.005 126.72 o
grestore
gsave
839.363943 96.923125 translate
0.000000 rotate
0.000000 0.000000 m /one glyphshow
19.086914 0.000000 m /two glyphshow
38.173828 0.000000 m /five glyphshow
grestore
gsave
/o {
gsave
newpath
translate
0.8 setlinewidth
1 setlinejoin
0 setlinecap
0 0 m
0 -3.5 l

gsave
0.000 setgray
fill
grestore
stroke
grestore
} bind def
995.46 126.72 o
grestore
gsave
966.819402 96.923125 translate
0.000000 rotate
0.000000 0.000000 m /one glyphshow
19.086914 0.000000 m /five glyphshow
38.173828 0.000000 m /zero glyphshow
grestore
gsave
/o {
gsave
newpath
translate
0.8 setlinewidth
1 setlinejoin
0 setlinecap
0 0 m
0 -3.5 l

gsave
0.000 setgray
fill
grestore
stroke
grestore
} bind def
1122.92 126.72 o
grestore
gsave
1094.274862 96.923125 translate
0.000000 rotate
0.000000 0.000000 m /one glyphshow
19.086914 0.000000 m /seven glyphshow
38.173828 0.000000 m /five glyphshow
grestore
gsave
/o {
gsave
newpath
translate
0.8 setlinewidth
1 setlinejoin
0 setlinecap
0 0 m
0 -3.5 l

gsave
0.000 setgray
fill
grestore
stroke
grestore
} bind def
1250.37 126.72 o
grestore
gsave
1221.730321 96.923125 translate
0.000000 rotate
0.000000 0.000000 m /two glyphshow
19.086914 0.000000 m /zero glyphshow
38.173828 0.000000 m /zero glyphshow
grestore
gsave
704.109375 63.891875 translate
0.000000 rotate
0.000000 0.000000 m /t glyphshow
11.762695 0.000000 m /i glyphshow
20.097656 0.000000 m /m glyphshow
49.321289 0.000000 m /e glyphshow
grestore
gsave
/o {
gsave
newpath
translate
0.8 setlinewidth
1 setlinejoin
0 setlinecap
0 0 m
-3.5 0 l

gsave
0.000 setgray
fill
grestore
stroke
grestore
} bind def
180 138.579 o
grestore
gsave
81.046875 127.180386 translate
0.000000 rotate
0.000000 0.000000 m /minus glyphshow
25.136719 0.000000 m /zero glyphshow
44.223633 0.000000 m /period glyphshow
53.759766 0.000000 m /zero glyphshow
72.846680 0.000000 m /five glyphshow
grestore
gsave
/o {
gsave
newpath
translate
0.8 setlinewidth
1 setlinejoin
0 setlinecap
0 0 m
-3.5 0 l

gsave
0.000 setgray
fill
grestore
stroke
grestore
} bind def
180 257.167 o
grestore
gsave
106.187500 245.768621 translate
0.000000 rotate
0.000000 0.000000 m /zero glyphshow
19.086914 0.000000 m /period glyphshow
28.623047 0.000000 m /zero glyphshow
47.709961 0.000000 m /zero glyphshow
grestore
gsave
/o {
gsave
newpath
translate
0.8 setlinewidth
1 setlinejoin
0 setlinecap
0 0 m
-3.5 0 l

gsave
0.000 setgray
fill
grestore
stroke
grestore
} bind def
180 375.755 o
grestore
gsave
106.187500 364.356857 translate
0.000000 rotate
0.000000 0.000000 m /zero glyphshow
19.086914 0.000000 m /period glyphshow
28.623047 0.000000 m /zero glyphshow
47.709961 0.000000 m /five glyphshow
grestore
gsave
70.812500 238.315496 translate
90.000000 rotate
0.000000 0.000000 m /U glyphshow
21.958008 0.000000 m /z glyphshow
grestore
4.000 setlinewidth
2 setlinecap
1.000 0.000 0.000 setrgbcolor
gsave
1116 260.9 180 126.7 clipbox
230.727273 257.167059 m
1245.272727 257.167059 l
1245.272727 257.167059 l
stroke
grestore
0.800 setlinewidth
0 setlinejoin
[] 0 setdash
0.000 setgray
gsave
180 126.72 m
180 387.614118 l
stroke
grestore
gsave
1296 126.72 m
1296 387.614118 l
stroke
grestore
gsave
180 126.72 m
1296 126.72 l
stroke
grestore
gsave
180 387.614118 m
1296 387.614118 l
stroke
grestore

end
showpage
